(kicad_sch (version 20230121) (generator eeschema)

  (uuid ee4822dd-0dcd-4d37-95f6-bbd16d7fcc2b)

  (paper "A4")

  (lib_symbols
    (symbol "Mechanical:MountingHole" (pin_names (offset 1.016)) (in_bom yes) (on_board yes)
      (property "Reference" "H" (at 0 5.08 0)
        (effects (font (size 1.27 1.27)))
      )
      (property "Value" "MountingHole" (at 0 3.175 0)
        (effects (font (size 1.27 1.27)))
      )
      (property "Footprint" "" (at 0 0 0)
        (effects (font (size 1.27 1.27)) hide)
      )
      (property "Datasheet" "~" (at 0 0 0)
        (effects (font (size 1.27 1.27)) hide)
      )
      (property "ki_keywords" "mounting hole" (at 0 0 0)
        (effects (font (size 1.27 1.27)) hide)
      )
      (property "ki_description" "Mounting Hole without connection" (at 0 0 0)
        (effects (font (size 1.27 1.27)) hide)
      )
      (property "ki_fp_filters" "MountingHole*" (at 0 0 0)
        (effects (font (size 1.27 1.27)) hide)
      )
      (symbol "MountingHole_0_1"
        (circle (center 0 0) (radius 1.27)
          (stroke (width 1.27) (type default))
          (fill (type none))
        )
      )
    )
  )


  (wire (pts (xy 132.08 81.28) (xy 158.75 81.28))
    (stroke (width 0) (type default))
    (uuid 0df2fdaf-bde1-4d4c-8429-36b6be8ffc6f)
  )
  (wire (pts (xy 132.08 78.74) (xy 158.75 78.74))
    (stroke (width 0) (type default))
    (uuid 1f4a7278-8a27-4ff5-81b9-0970dcaa3e15)
  )
  (wire (pts (xy 132.08 91.44) (xy 158.75 91.44))
    (stroke (width 0) (type default))
    (uuid 2251932a-bb27-4cc5-a5fc-088ab166d681)
  )
  (wire (pts (xy 132.08 93.98) (xy 158.75 93.98))
    (stroke (width 0) (type default))
    (uuid 239f8124-99b0-48ef-82c6-b114598ef42e)
  )
  (wire (pts (xy 132.08 99.06) (xy 158.75 99.06))
    (stroke (width 0) (type default))
    (uuid 347f4a6a-7a6e-4600-a865-b639baf00425)
  )
  (wire (pts (xy 146.05 73.66) (xy 146.05 57.15))
    (stroke (width 0) (type default))
    (uuid 83d80a17-020f-422e-8e0f-b55fdd66f932)
  )
  (wire (pts (xy 132.08 86.36) (xy 158.75 86.36))
    (stroke (width 0) (type default))
    (uuid 85d4c850-4283-4f25-952e-dc546dbdae91)
  )
  (wire (pts (xy 132.08 83.82) (xy 158.75 83.82))
    (stroke (width 0) (type default))
    (uuid ab7b73e2-aa0d-4295-843e-164bb133909a)
  )
  (wire (pts (xy 132.08 73.66) (xy 146.05 73.66))
    (stroke (width 0) (type default))
    (uuid cce00e5e-77ee-473f-95f5-01084a7ec380)
  )
  (wire (pts (xy 146.05 57.15) (xy 158.75 57.15))
    (stroke (width 0) (type default))
    (uuid ce275c2b-1aa4-4b01-85f2-5d429bf6575a)
  )
  (wire (pts (xy 132.08 76.2) (xy 158.75 76.2))
    (stroke (width 0) (type default))
    (uuid e194b9b0-ab8f-4b0f-8b9d-26a245ba2357)
  )
  (wire (pts (xy 132.08 96.52) (xy 158.75 96.52))
    (stroke (width 0) (type default))
    (uuid e74863cc-f072-46c5-8eca-21a9079f0e95)
  )
  (wire (pts (xy 132.08 88.9) (xy 158.75 88.9))
    (stroke (width 0) (type default))
    (uuid f49fb2dc-b1f9-40b9-a59d-6cd314d30b7e)
  )

  (symbol (lib_id "Mechanical:MountingHole") (at 203.2 62.23 0) (unit 1)
    (in_bom yes) (on_board yes) (dnp no) (fields_autoplaced)
    (uuid 639f4470-87cc-47bd-8a8e-f6a437e8afbf)
    (property "Reference" "H2" (at 205.74 60.9599 0)
      (effects (font (size 1.27 1.27)) (justify left))
    )
    (property "Value" "MountingHole" (at 205.74 63.4999 0)
      (effects (font (size 1.27 1.27)) (justify left))
    )
    (property "Footprint" "MountingHole:MountingHole_2.2mm_M2_ISO14580" (at 203.2 62.23 0)
      (effects (font (size 1.27 1.27)) hide)
    )
    (property "Datasheet" "~" (at 203.2 62.23 0)
      (effects (font (size 1.27 1.27)) hide)
    )
    (instances
      (project "t9"
        (path "/ee4822dd-0dcd-4d37-95f6-bbd16d7fcc2b"
          (reference "H2") (unit 1)
        )
      )
    )
  )

  (symbol (lib_id "Mechanical:MountingHole") (at 203.2 67.31 0) (unit 1)
    (in_bom yes) (on_board yes) (dnp no) (fields_autoplaced)
    (uuid 795f8d1f-4ce3-4789-87a6-b5d17c34157e)
    (property "Reference" "H3" (at 205.74 66.0399 0)
      (effects (font (size 1.27 1.27)) (justify left))
    )
    (property "Value" "MountingHole" (at 205.74 68.5799 0)
      (effects (font (size 1.27 1.27)) (justify left))
    )
    (property "Footprint" "MountingHole:MountingHole_2.2mm_M2_ISO14580" (at 203.2 67.31 0)
      (effects (font (size 1.27 1.27)) hide)
    )
    (property "Datasheet" "~" (at 203.2 67.31 0)
      (effects (font (size 1.27 1.27)) hide)
    )
    (instances
      (project "t9"
        (path "/ee4822dd-0dcd-4d37-95f6-bbd16d7fcc2b"
          (reference "H3") (unit 1)
        )
      )
    )
  )

  (symbol (lib_id "Mechanical:MountingHole") (at 203.2 72.39 0) (unit 1)
    (in_bom yes) (on_board yes) (dnp no) (fields_autoplaced)
    (uuid 80f1a2ce-f80b-49d2-80ff-db6f897a8eda)
    (property "Reference" "H4" (at 205.74 71.1199 0)
      (effects (font (size 1.27 1.27)) (justify left))
    )
    (property "Value" "MountingHole" (at 205.74 73.6599 0)
      (effects (font (size 1.27 1.27)) (justify left))
    )
    (property "Footprint" "MountingHole:MountingHole_2.2mm_M2_ISO14580" (at 203.2 72.39 0)
      (effects (font (size 1.27 1.27)) hide)
    )
    (property "Datasheet" "~" (at 203.2 72.39 0)
      (effects (font (size 1.27 1.27)) hide)
    )
    (instances
      (project "t9"
        (path "/ee4822dd-0dcd-4d37-95f6-bbd16d7fcc2b"
          (reference "H4") (unit 1)
        )
      )
    )
  )

  (symbol (lib_id "Mechanical:MountingHole") (at 203.2 57.15 0) (unit 1)
    (in_bom yes) (on_board yes) (dnp no) (fields_autoplaced)
    (uuid b67bea0d-da0c-44a9-b952-a545e6b67053)
    (property "Reference" "H1" (at 205.74 55.8799 0)
      (effects (font (size 1.27 1.27)) (justify left))
    )
    (property "Value" "MountingHole" (at 205.74 58.4199 0)
      (effects (font (size 1.27 1.27)) (justify left))
    )
    (property "Footprint" "MountingHole:MountingHole_2.2mm_M2_ISO14580" (at 203.2 57.15 0)
      (effects (font (size 1.27 1.27)) hide)
    )
    (property "Datasheet" "~" (at 203.2 57.15 0)
      (effects (font (size 1.27 1.27)) hide)
    )
    (instances
      (project "t9"
        (path "/ee4822dd-0dcd-4d37-95f6-bbd16d7fcc2b"
          (reference "H1") (unit 1)
        )
      )
    )
  )

  (sheet (at 158.75 73.66) (size 27.94 27.94) (fields_autoplaced)
    (stroke (width 0.1524) (type solid))
    (fill (color 0 0 0 0.0000))
    (uuid 794067fc-a211-47e1-8bfa-31ad42f90dea)
    (property "Sheetname" "Switch Matrix" (at 158.75 72.9484 0)
      (effects (font (size 1.27 1.27)) (justify left bottom))
    )
    (property "Sheetfile" "switch_matrix.kicad_sch" (at 158.75 102.1846 0)
      (effects (font (size 1.27 1.27)) (justify left top))
    )
    (pin "ROW3" input (at 158.75 83.82 180)
      (effects (font (size 1.27 1.27)) (justify left))
      (uuid 04da5703-c327-4aad-85fd-d2cd38c39628)
    )
    (pin "ROW4" input (at 158.75 86.36 180)
      (effects (font (size 1.27 1.27)) (justify left))
      (uuid e39ef5ac-4393-47cd-a94d-272f465f4272)
    )
    (pin "ROW2" input (at 158.75 81.28 180)
      (effects (font (size 1.27 1.27)) (justify left))
      (uuid de87c60d-7aca-4395-883b-fe0562d4c422)
    )
    (pin "ROW1" input (at 158.75 78.74 180)
      (effects (font (size 1.27 1.27)) (justify left))
      (uuid 9d137e62-dfa8-412a-a72e-187737f0a7af)
    )
    (pin "ROW0" input (at 158.75 76.2 180)
      (effects (font (size 1.27 1.27)) (justify left))
      (uuid d09c486c-2f0e-49e1-b620-c2c77d7842d3)
    )
    (pin "COL2" input (at 158.75 96.52 180)
      (effects (font (size 1.27 1.27)) (justify left))
      (uuid c0cf502c-daa5-4be0-a063-ea35abe47512)
    )
    (pin "COL3" input (at 158.75 99.06 180)
      (effects (font (size 1.27 1.27)) (justify left))
      (uuid ea3ada1e-3271-4e02-bbc1-f2a0f900a7af)
    )
    (pin "COL1" input (at 158.75 93.98 180)
      (effects (font (size 1.27 1.27)) (justify left))
      (uuid f50de18b-5ef6-4e9a-9f45-d63964b2f60e)
    )
    (pin "COL0" input (at 158.75 91.44 180)
      (effects (font (size 1.27 1.27)) (justify left))
      (uuid 2f54141b-00db-4250-8fb7-2c6f6344ba78)
    )
    (pin "ROW5" input (at 158.75 88.9 180)
      (effects (font (size 1.27 1.27)) (justify left))
      (uuid 4dc4f75f-978f-4aff-ab9e-4e91c679ad57)
    )
    (instances
      (project "t9"
        (path "/ee4822dd-0dcd-4d37-95f6-bbd16d7fcc2b" (page "3"))
      )
    )
  )

  (sheet (at 158.75 49.53) (size 24.13 12.7) (fields_autoplaced)
    (stroke (width 0.1524) (type solid))
    (fill (color 0 0 0 0.0000))
    (uuid b38b1b97-f51d-4817-bd72-bcb12f0dd8bc)
    (property "Sheetname" "LED Matrix" (at 158.75 48.8184 0)
      (effects (font (size 1.27 1.27)) (justify left bottom))
    )
    (property "Sheetfile" "led_matrix.kicad_sch" (at 158.75 62.8146 0)
      (effects (font (size 1.27 1.27)) (justify left top))
    )
    (pin "DOUT" input (at 158.75 52.07 180)
      (effects (font (size 1.27 1.27)) (justify left))
      (uuid 0dbbe722-680e-47ef-aef0-3852882ee477)
    )
    (pin "VDD" input (at 158.75 54.61 180)
      (effects (font (size 1.27 1.27)) (justify left))
      (uuid d63ee441-5e22-4df4-b266-514939c2776c)
    )
    (pin "DIN" input (at 158.75 57.15 180)
      (effects (font (size 1.27 1.27)) (justify left))
      (uuid bdd62476-8acf-4037-a337-fd301a9a92e1)
    )
    (pin "VSS" input (at 158.75 59.69 180)
      (effects (font (size 1.27 1.27)) (justify left))
      (uuid ffff64ba-68a8-46cc-b29d-aafd83478659)
    )
    (instances
      (project "t9"
        (path "/ee4822dd-0dcd-4d37-95f6-bbd16d7fcc2b" (page "2"))
      )
    )
  )

  (sheet (at 113.03 71.12) (size 19.05 30.48) (fields_autoplaced)
    (stroke (width 0.1524) (type solid))
    (fill (color 0 0 0 0.0000))
    (uuid fed08e20-03fe-462e-b387-341b8ffbf204)
    (property "Sheetname" "MCU" (at 113.03 70.4084 0)
      (effects (font (size 1.27 1.27)) (justify left bottom))
    )
    (property "Sheetfile" "mcu.kicad_sch" (at 113.03 102.1846 0)
      (effects (font (size 1.27 1.27)) (justify left top))
    )
    (pin "COL0" input (at 132.08 91.44 0)
      (effects (font (size 1.27 1.27)) (justify right))
      (uuid f1e89be5-2958-4e18-804e-a3a1f22582b0)
    )
    (pin "COL1" input (at 132.08 93.98 0)
      (effects (font (size 1.27 1.27)) (justify right))
      (uuid 8faf3095-13ea-46ea-8f32-5b319afa9d7a)
    )
    (pin "COL2" input (at 132.08 96.52 0)
      (effects (font (size 1.27 1.27)) (justify right))
      (uuid 2089e11c-a9c3-4a32-8583-c907bc6fe777)
    )
    (pin "COL3" input (at 132.08 99.06 0)
      (effects (font (size 1.27 1.27)) (justify right))
      (uuid 1ba1ff1d-f707-40ec-8d1e-95ae4fea5210)
    )
    (pin "ROW0" input (at 132.08 76.2 0)
      (effects (font (size 1.27 1.27)) (justify right))
      (uuid ba7d82ec-c277-44b4-a340-7b34f2995c0e)
    )
    (pin "ROW1" input (at 132.08 78.74 0)
      (effects (font (size 1.27 1.27)) (justify right))
      (uuid 5eded9cc-9283-4f1b-9667-8ed393dbe986)
    )
    (pin "ROW2" input (at 132.08 81.28 0)
      (effects (font (size 1.27 1.27)) (justify right))
      (uuid 256518b3-836b-4182-9a92-1c82c7663ca0)
    )
    (pin "ROW3" input (at 132.08 83.82 0)
      (effects (font (size 1.27 1.27)) (justify right))
      (uuid a4c1b9cc-5c11-49ed-9885-0f4a6c49183a)
    )
    (pin "ROW4" input (at 132.08 86.36 0)
      (effects (font (size 1.27 1.27)) (justify right))
      (uuid d9d91f22-f67b-42c7-afd2-6e16a6e2787a)
    )
    (pin "ROW5" input (at 132.08 88.9 0)
      (effects (font (size 1.27 1.27)) (justify right))
      (uuid c9b2c1d1-c50e-4a1f-9b8f-13b9b50ebeb3)
    )
    (pin "DIN" input (at 132.08 73.66 0)
      (effects (font (size 1.27 1.27)) (justify right))
      (uuid 20b195d5-334a-4bd3-bab4-8f124fd10ad3)
    )
    (instances
      (project "t9"
        (path "/ee4822dd-0dcd-4d37-95f6-bbd16d7fcc2b" (page "4"))
      )
    )
  )

  (sheet_instances
    (path "/" (page "1"))
  )
)
